^C:\USERS\OWNER\DOCUMENTS\VISUAL STUDIO 2010\PROJECTS\CS-GO EXAMPLE\HL2SDK-CSGO\TIER1\KEYVALUES.CPP
/c /Zi /nologo /W0 /WX- /O2 /Oy- /GL /D WIN32 /D NDEBUG /D _WINDOWS /D _USRDLL /D STUB_MM_EXPORTS /D COMPILER_MSVC /D COMPILER_MSVC32 /D SOURCE_ENGINE=12 /D _WINDLL /D _MBCS /Gm- /EHsc /MD /GS /fp:precise /Zc:wchar_t /Zc:forScope /Fo"Release - CS GO\\" /Fd"Release - CS GO\vc100.pdb" /Gd /TP /analyze- /errorReport:prompt /D SE_EPISODE1=1 /D SE_DARKMESSIAH=2 /D SE_ORANGEBOX=3 /D SE_BLOODYGOODTIME=4 /D SE_EYE=5 /D SE_CSS=6 /D SE_ORANGEBOXVALVE=7 /D SE_LEFT4DEAD=8 /D SE_LEFT4DEAD2=9 /D SE_ALIENSWARM=10 /D SE_PORTAL2=1 /D SE_CSGO=12  C:\USERS\OWNER\DOCUMENTS\VISUAL STUDIO 2010\PROJECTS\CS-GO EXAMPLE\HL2SDK-CSGO\TIER1\KEYVALUES.CPP
^C:\USERS\OWNER\DOCUMENTS\VISUAL STUDIO 2010\PROJECTS\CS-GO EXAMPLE\SRC\OFFSETS.CPP
/c /Zi /nologo /W0 /WX- /O2 /Oy- /GL /D WIN32 /D NDEBUG /D _WINDOWS /D _USRDLL /D STUB_MM_EXPORTS /D COMPILER_MSVC /D COMPILER_MSVC32 /D SOURCE_ENGINE=12 /D _WINDLL /D _MBCS /Gm- /EHsc /MD /GS /fp:precise /Zc:wchar_t /Zc:forScope /Fo"Release - CS GO\\" /Fd"Release - CS GO\vc100.pdb" /Gd /TP /analyze- /errorReport:prompt /D SE_EPISODE1=1 /D SE_DARKMESSIAH=2 /D SE_ORANGEBOX=3 /D SE_BLOODYGOODTIME=4 /D SE_EYE=5 /D SE_CSS=6 /D SE_ORANGEBOXVALVE=7 /D SE_LEFT4DEAD=8 /D SE_LEFT4DEAD2=9 /D SE_ALIENSWARM=10 /D SE_PORTAL2=1 /D SE_CSGO=12  C:\USERS\OWNER\DOCUMENTS\VISUAL STUDIO 2010\PROJECTS\CS-GO EXAMPLE\SRC\OFFSETS.CPP
^C:\USERS\OWNER\DOCUMENTS\VISUAL STUDIO 2010\PROJECTS\CS-GO EXAMPLE\SRC\MAIN.CPP
/c /Zi /nologo /W0 /WX- /O2 /Oy- /GL /D WIN32 /D NDEBUG /D _WINDOWS /D _USRDLL /D STUB_MM_EXPORTS /D COMPILER_MSVC /D COMPILER_MSVC32 /D SOURCE_ENGINE=12 /D _WINDLL /D _MBCS /Gm- /EHsc /MD /GS /fp:precise /Zc:wchar_t /Zc:forScope /Fo"Release - CS GO\\" /Fd"Release - CS GO\vc100.pdb" /Gd /TP /analyze- /errorReport:prompt /D SE_EPISODE1=1 /D SE_DARKMESSIAH=2 /D SE_ORANGEBOX=3 /D SE_BLOODYGOODTIME=4 /D SE_EYE=5 /D SE_CSS=6 /D SE_ORANGEBOXVALVE=7 /D SE_LEFT4DEAD=8 /D SE_LEFT4DEAD2=9 /D SE_ALIENSWARM=10 /D SE_PORTAL2=1 /D SE_CSGO=12  C:\USERS\OWNER\DOCUMENTS\VISUAL STUDIO 2010\PROJECTS\CS-GO EXAMPLE\SRC\MAIN.CPP
^C:\USERS\OWNER\DOCUMENTS\VISUAL STUDIO 2010\PROJECTS\CS-GO EXAMPLE\SRC\NETVARS.CPP
/c /Zi /nologo /W0 /WX- /O2 /Oy- /GL /D WIN32 /D NDEBUG /D _WINDOWS /D _USRDLL /D STUB_MM_EXPORTS /D COMPILER_MSVC /D COMPILER_MSVC32 /D SOURCE_ENGINE=12 /D _WINDLL /D _MBCS /Gm- /EHsc /MD /GS /fp:precise /Zc:wchar_t /Zc:forScope /Fo"Release - CS GO\\" /Fd"Release - CS GO\vc100.pdb" /Gd /TP /analyze- /errorReport:prompt /D SE_EPISODE1=1 /D SE_DARKMESSIAH=2 /D SE_ORANGEBOX=3 /D SE_BLOODYGOODTIME=4 /D SE_EYE=5 /D SE_CSS=6 /D SE_ORANGEBOXVALVE=7 /D SE_LEFT4DEAD=8 /D SE_LEFT4DEAD2=9 /D SE_ALIENSWARM=10 /D SE_PORTAL2=1 /D SE_CSGO=12  C:\USERS\OWNER\DOCUMENTS\VISUAL STUDIO 2010\PROJECTS\CS-GO EXAMPLE\SRC\NETVARS.CPP
^C:\USERS\OWNER\DOCUMENTS\VISUAL STUDIO 2013\PROJECTS\CS-GO EXAMPLE\SRC\OFFSETS.CPP
/c /Zi /nologo /W0 /WX- /O2 /Oy- /GL /D WIN32 /D NDEBUG /D _WINDOWS /D _USRDLL /D STUB_MM_EXPORTS /D COMPILER_MSVC /D COMPILER_MSVC32 /D SOURCE_ENGINE=12 /D _WINDLL /D _MBCS /Gm- /EHsc /MD /GS /fp:precise /Zc:wchar_t /Zc:forScope /Fo"Release - CS GO\\" /Fd"Release - CS GO\vc100.pdb" /Gd /TP /analyze- /errorReport:prompt /D SE_EPISODE1=1 /D SE_DARKMESSIAH=2 /D SE_ORANGEBOX=3 /D SE_BLOODYGOODTIME=4 /D SE_EYE=5 /D SE_CSS=6 /D SE_ORANGEBOXVALVE=7 /D SE_LEFT4DEAD=8 /D SE_LEFT4DEAD2=9 /D SE_ALIENSWARM=10 /D SE_PORTAL2=1 /D SE_CSGO=12  C:\USERS\OWNER\DOCUMENTS\VISUAL STUDIO 2013\PROJECTS\CS-GO EXAMPLE\SRC\OFFSETS.CPP
^C:\USERS\OWNER\DOCUMENTS\VISUAL STUDIO 2013\PROJECTS\CS-GO EXAMPLE\HL2SDK-CSGO\TIER1\KEYVALUES.CPP
/c /Zi /nologo /W0 /WX- /O2 /Oy- /GL /D WIN32 /D NDEBUG /D _WINDOWS /D _USRDLL /D STUB_MM_EXPORTS /D COMPILER_MSVC /D COMPILER_MSVC32 /D SOURCE_ENGINE=12 /D _WINDLL /D _MBCS /Gm- /EHsc /MD /GS /fp:precise /Zc:wchar_t /Zc:forScope /Fo"Release - CS GO\\" /Fd"Release - CS GO\vc100.pdb" /Gd /TP /analyze- /errorReport:prompt /D SE_EPISODE1=1 /D SE_DARKMESSIAH=2 /D SE_ORANGEBOX=3 /D SE_BLOODYGOODTIME=4 /D SE_EYE=5 /D SE_CSS=6 /D SE_ORANGEBOXVALVE=7 /D SE_LEFT4DEAD=8 /D SE_LEFT4DEAD2=9 /D SE_ALIENSWARM=10 /D SE_PORTAL2=1 /D SE_CSGO=12  C:\USERS\OWNER\DOCUMENTS\VISUAL STUDIO 2013\PROJECTS\CS-GO EXAMPLE\HL2SDK-CSGO\TIER1\KEYVALUES.CPP
^C:\USERS\OWNER\DOCUMENTS\VISUAL STUDIO 2013\PROJECTS\CS-GO EXAMPLE\SRC\NETVARS.CPP
/c /Zi /nologo /W0 /WX- /O2 /Oy- /GL /D WIN32 /D NDEBUG /D _WINDOWS /D _USRDLL /D STUB_MM_EXPORTS /D COMPILER_MSVC /D COMPILER_MSVC32 /D SOURCE_ENGINE=12 /D _WINDLL /D _MBCS /Gm- /EHsc /MD /GS /fp:precise /Zc:wchar_t /Zc:forScope /Fo"Release - CS GO\\" /Fd"Release - CS GO\vc100.pdb" /Gd /TP /analyze- /errorReport:prompt /D SE_EPISODE1=1 /D SE_DARKMESSIAH=2 /D SE_ORANGEBOX=3 /D SE_BLOODYGOODTIME=4 /D SE_EYE=5 /D SE_CSS=6 /D SE_ORANGEBOXVALVE=7 /D SE_LEFT4DEAD=8 /D SE_LEFT4DEAD2=9 /D SE_ALIENSWARM=10 /D SE_PORTAL2=1 /D SE_CSGO=12  C:\USERS\OWNER\DOCUMENTS\VISUAL STUDIO 2013\PROJECTS\CS-GO EXAMPLE\SRC\NETVARS.CPP
^C:\USERS\OWNER\DOCUMENTS\VISUAL STUDIO 2013\PROJECTS\CS-GO EXAMPLE\SRC\MAIN.CPP
/c /Zi /nologo /W0 /WX- /O2 /Oy- /GL /D WIN32 /D NDEBUG /D _WINDOWS /D _USRDLL /D STUB_MM_EXPORTS /D COMPILER_MSVC /D COMPILER_MSVC32 /D SOURCE_ENGINE=12 /D _WINDLL /D _MBCS /Gm- /EHsc /MD /GS /fp:precise /Zc:wchar_t /Zc:forScope /Fo"Release - CS GO\\" /Fd"Release - CS GO\vc100.pdb" /Gd /TP /analyze- /errorReport:prompt /D SE_EPISODE1=1 /D SE_DARKMESSIAH=2 /D SE_ORANGEBOX=3 /D SE_BLOODYGOODTIME=4 /D SE_EYE=5 /D SE_CSS=6 /D SE_ORANGEBOXVALVE=7 /D SE_LEFT4DEAD=8 /D SE_LEFT4DEAD2=9 /D SE_ALIENSWARM=10 /D SE_PORTAL2=1 /D SE_CSGO=12  C:\USERS\OWNER\DOCUMENTS\VISUAL STUDIO 2013\PROJECTS\CS-GO EXAMPLE\SRC\MAIN.CPP
