^C:\USERS\OWNER\DOCUMENTS\VISUAL STUDIO 2010\PROJECTS\CS-GO EXAMPLE\RELEASE - CS GO\KEYVALUES.OBJ|C:\USERS\OWNER\DOCUMENTS\VISUAL STUDIO 2010\PROJECTS\CS-GO EXAMPLE\RELEASE - CS GO\MAIN.OBJ|C:\USERS\OWNER\DOCUMENTS\VISUAL STUDIO 2010\PROJECTS\CS-GO EXAMPLE\RELEASE - CS GO\NETVARS.OBJ|C:\USERS\OWNER\DOCUMENTS\VISUAL STUDIO 2010\PROJECTS\CS-GO EXAMPLE\RELEASE - CS GO\OFFSETS.OBJ
/ERRORREPORT:PROMPT /OUT:"C:\Users\Owner\Documents\Visual Studio 2010\Projects\cs-go example\Release - CS GO\source.dll" /INCREMENTAL:NO /NOLOGO "hl2sdk-csgo\lib\public\interfaces.lib" "hl2sdk-csgo\lib\public\tier0.lib" "hl2sdk-csgo\lib\public\tier1.lib" "hl2sdk-csgo\lib\public\vstdlib.lib" kernel32.lib user32.lib gdi32.lib winspool.lib comdlg32.lib advapi32.lib shell32.lib ole32.lib oleaut32.lib uuid.lib odbc32.lib odbccp32.lib /NODEFAULTLIB:LIBC /NODEFAULTLIB:LIBCD /NODEFAULTLIB:LIBCMT /MANIFEST /ManifestFile:"Release - CS GO\source.dll.intermediate.manifest" /MANIFESTUAC:"level='asInvoker' uiAccess='false'" /DEBUG /PDB:"C:\Users\Owner\Documents\Visual Studio 2010\Projects\cs-go example\Release - CS GO\source.pdb" /SUBSYSTEM:WINDOWS /OPT:REF /OPT:ICF /LTCG /TLBID:1 /DYNAMICBASE:NO /IMPLIB:"C:\Users\Owner\Documents\Visual Studio 2010\Projects\cs-go example\Release - CS GO\source.lib" /MACHINE:X86 /SAFESEH:NO /DLL "Release - CS GO\KeyValues.obj"
"Release - CS GO\offsets.obj"
"Release - CS GO\main.obj"
"Release - CS GO\netvars.obj"
^C:\USERS\OWNER\DOCUMENTS\VISUAL STUDIO 2013\PROJECTS\CS-GO EXAMPLE\RELEASE - CS GO\KEYVALUES.OBJ|C:\USERS\OWNER\DOCUMENTS\VISUAL STUDIO 2013\PROJECTS\CS-GO EXAMPLE\RELEASE - CS GO\MAIN.OBJ|C:\USERS\OWNER\DOCUMENTS\VISUAL STUDIO 2013\PROJECTS\CS-GO EXAMPLE\RELEASE - CS GO\NETVARS.OBJ|C:\USERS\OWNER\DOCUMENTS\VISUAL STUDIO 2013\PROJECTS\CS-GO EXAMPLE\RELEASE - CS GO\OFFSETS.OBJ
/ERRORREPORT:PROMPT /OUT:"C:\Users\Owner\Documents\Visual Studio 2013\Projects\cs-go example\Release - CS GO\asource.dll" /INCREMENTAL:NO /NOLOGO "hl2sdk-csgo\lib\public\interfaces.lib" "hl2sdk-csgo\lib\public\tier0.lib" "hl2sdk-csgo\lib\public\tier1.lib" "hl2sdk-csgo\lib\public\vstdlib.lib" kernel32.lib user32.lib gdi32.lib winspool.lib comdlg32.lib advapi32.lib shell32.lib ole32.lib oleaut32.lib uuid.lib odbc32.lib odbccp32.lib /NODEFAULTLIB:LIBC /NODEFAULTLIB:LIBCD /NODEFAULTLIB:LIBCMT /MANIFEST /ManifestFile:"Release - CS GO\asource.dll.intermediate.manifest" /MANIFESTUAC:"level='asInvoker' uiAccess='false'" /DEBUG /PDB:"C:\Users\Owner\Documents\Visual Studio 2013\Projects\cs-go example\Release - CS GO\asource.pdb" /SUBSYSTEM:WINDOWS /OPT:REF /OPT:ICF /LTCG /TLBID:1 /DYNAMICBASE:NO /IMPLIB:"C:\Users\Owner\Documents\Visual Studio 2013\Projects\cs-go example\Release - CS GO\asource.lib" /MACHINE:X86 /SAFESEH:NO /DLL "Release - CS GO\KeyValues.obj"
"Release - CS GO\offsets.obj"
"Release - CS GO\main.obj"
"Release - CS GO\netvars.obj"
